…
``` r
dns
```

    # A tibble: 427,934 × 23
       `1331901005.510000` CWGtK431H9XuaTN4fi `192.168.202.100` `45658`
                     <dbl> <chr>              <chr>               <dbl>
     1         1331901015. C36a282Jljz7BsbGH  192.168.202.76        137
     2         1331901016. C36a282Jljz7BsbGH  192.168.202.76        137
     3         1331901017. C36a282Jljz7BsbGH  192.168.202.76        137
     4         1331901006. C36a282Jljz7BsbGH  192.168.202.76        137
     5         1331901007. C36a282Jljz7BsbGH  192.168.202.76        137
     6         1331901007. C36a282Jljz7BsbGH  192.168.202.76        137
     7         1331901006. ClEZCt3GLkJdtGGmAa 192.168.202.89        137
     8         1331901007. ClEZCt3GLkJdtGGmAa 192.168.202.89        137
     9         1331901008. ClEZCt3GLkJdtGGmAa 192.168.202.89        137
    10         1331901007. CpD4i41jyaYqmTBMH3 192.168.202.89        137
    # ℹ 427,924 more rows
    # ℹ 19 more variables: `192.168.27.203` <chr>, `137` <dbl>, udp <chr>,
    #   `33008` <dbl>,
    #   `*\\x00\\x00\\x00\\x00\\x00\\x00\\x00\\x00\\x00\\x00\\x00\\x00\\x00\\x00` <chr>,
    #   `1...10` <chr>, C_INTERNET <chr>, `33` <chr>, SRV <chr>, `0` <chr>,
    #   NOERROR <chr>, F...16 <lgl>, F...17 <lgl>, F...18 <lgl>, F...19 <lgl>,
    #   `1...20` <dbl>, `-...21` <chr>, `-...22` <chr>, F...23 <lgl>
…
